C:\playground\commons-lang-trunk\commons-lang-trunk\src\test\java\org\apache\commons\lang3\reflect\testbed\PubliclyShadowedChild.java
C:\playground\commons-lang-trunk\commons-lang-trunk\src\test\java\org\apache\commons\lang3\reflect\testbed\Ambig.java
C:\playground\commons-lang-trunk\commons-lang-trunk\src\test\java\org\apache\commons\lang3\EnumUtilsTest.java
C:\playground\commons-lang-trunk\commons-lang-trunk\src\test\java\org\apache\commons\lang3\builder\ToStringBuilderTest.java
C:\playground\commons-lang-trunk\commons-lang-trunk\src\test\java\org\apache\commons\lang3\tuple\ImmutableTripleTest.java
C:\playground\commons-lang-trunk\commons-lang-trunk\src\test\java\org\apache\commons\lang3\builder\CompareToBuilderTest.java
C:\playground\commons-lang-trunk\commons-lang-trunk\src\test\java\org\apache\commons\lang3\text\StrSubstitutorTest.java
C:\playground\commons-lang-trunk\commons-lang-trunk\src\test\java\org\apache\commons\lang3\text\WordUtilsTest.java
C:\playground\commons-lang-trunk\commons-lang-trunk\src\test\java\org\apache\commons\lang3\StringUtilsEqualsIndexOfTest.java
C:\playground\commons-lang-trunk\commons-lang-trunk\src\test\java\org\apache\commons\lang3\LocaleUtilsTest.java
C:\playground\commons-lang-trunk\commons-lang-trunk\src\test\java\org\apache\commons\lang3\text\translate\NumericEntityEscaperTest.java
C:\playground\commons-lang-trunk\commons-lang-trunk\src\test\java\org\apache\commons\lang3\concurrent\AbstractConcurrentInitializerTest.java
C:\playground\commons-lang-trunk\commons-lang-trunk\src\test\java\org\apache\commons\lang3\reflect\FieldUtilsTest.java
C:\playground\commons-lang-trunk\commons-lang-trunk\src\test\java\org\apache\commons\lang3\mutable\MutableBooleanTest.java
C:\playground\commons-lang-trunk\commons-lang-trunk\src\test\java\org\apache\commons\lang3\CharSetUtilsTest.java
C:\playground\commons-lang-trunk\commons-lang-trunk\src\test\java\org\apache\commons\lang3\concurrent\BackgroundInitializerTest.java
C:\playground\commons-lang-trunk\commons-lang-trunk\src\test\java\org\apache\commons\lang3\tuple\ImmutablePairTest.java
C:\playground\commons-lang-trunk\commons-lang-trunk\src\test\java\org\apache\commons\lang3\builder\ShortPrefixToStringStyleTest.java
C:\playground\commons-lang-trunk\commons-lang-trunk\src\test\java\org\apache\commons\lang3\concurrent\LazyInitializerTest.java
C:\playground\commons-lang-trunk\commons-lang-trunk\src\test\java\org\apache\commons\lang3\mutable\MutableLongTest.java
C:\playground\commons-lang-trunk\commons-lang-trunk\src\test\java\org\apache\commons\lang3\AnnotationUtilsTest.java
C:\playground\commons-lang-trunk\commons-lang-trunk\src\test\java\org\apache\commons\lang3\builder\MultiLineToStringStyleTest.java
C:\playground\commons-lang-trunk\commons-lang-trunk\src\test\java\org\apache\commons\lang3\exception\DefaultExceptionContextTest.java
C:\playground\commons-lang-trunk\commons-lang-trunk\src\test\java\org\apache\commons\lang3\builder\ToStringStyleTest.java
C:\playground\commons-lang-trunk\commons-lang-trunk\src\test\java\org\apache\commons\lang3\concurrent\CallableBackgroundInitializerTest.java
C:\playground\commons-lang-trunk\commons-lang-trunk\src\test\java\org\apache\commons\lang3\mutable\MutableByteTest.java
C:\playground\commons-lang-trunk\commons-lang-trunk\src\test\java\org\apache\commons\lang3\CharUtilsTest.java
C:\playground\commons-lang-trunk\commons-lang-trunk\src\test\java\org\apache\commons\lang3\mutable\MutableShortTest.java
C:\playground\commons-lang-trunk\commons-lang-trunk\src\test\java\org\apache\commons\lang3\StringUtilsTrimEmptyTest.java
C:\playground\commons-lang-trunk\commons-lang-trunk\src\test\java\org\apache\commons\lang3\text\translate\OctalUnescaperTest.java
C:\playground\commons-lang-trunk\commons-lang-trunk\src\test\java\org\apache\commons\lang3\math\NumberUtilsTest.java
C:\playground\commons-lang-trunk\commons-lang-trunk\src\test\java\org\apache\commons\lang3\text\translate\UnicodeUnescaperTest.java
C:\playground\commons-lang-trunk\commons-lang-trunk\src\test\java\org\apache\commons\lang3\time\DateUtilsTest.java
C:\playground\commons-lang-trunk\commons-lang-trunk\src\test\java\org\apache\commons\lang3\text\FormattableUtilsTest.java
C:\playground\commons-lang-trunk\commons-lang-trunk\src\test\java\org\apache\commons\lang3\text\translate\LookupTranslatorTest.java
C:\playground\commons-lang-trunk\commons-lang-trunk\src\test\java\org\apache\commons\lang3\time\DateUtilsRoundingTest.java
C:\playground\commons-lang-trunk\commons-lang-trunk\src\test\java\org\apache\commons\lang3\StringUtilsIsTest.java
C:\playground\commons-lang-trunk\commons-lang-trunk\src\test\java\org\apache\commons\lang3\mutable\MutableObjectTest.java
C:\playground\commons-lang-trunk\commons-lang-trunk\src\test\java\org\apache\commons\lang3\CharUtilsPerfRun.java
C:\playground\commons-lang-trunk\commons-lang-trunk\src\test\java\org\apache\commons\lang3\reflect\testbed\GenericParent.java
C:\playground\commons-lang-trunk\commons-lang-trunk\src\test\java\org\apache\commons\lang3\SystemUtilsTest.java
C:\playground\commons-lang-trunk\commons-lang-trunk\src\test\java\org\apache\commons\lang3\time\FastDateFormatTest.java
C:\playground\commons-lang-trunk\commons-lang-trunk\src\test\java\org\apache\commons\lang3\StringEscapeUtilsTest.java
C:\playground\commons-lang-trunk\commons-lang-trunk\src\test\java\org\apache\commons\lang3\StringUtilsStartsEndsWithTest.java
C:\playground\commons-lang-trunk\commons-lang-trunk\src\test\java\org\apache\commons\lang3\reflect\testbed\StringParameterizedChild.java
C:\playground\commons-lang-trunk\commons-lang-trunk\src\test\java\org\apache\commons\lang3\exception\ContextedRuntimeExceptionTest.java
C:\playground\commons-lang-trunk\commons-lang-trunk\src\test\java\org\apache\commons\lang3\reflect\TypeUtilsTest.java
C:\playground\commons-lang-trunk\commons-lang-trunk\src\test\java\org\apache\commons\lang3\builder\ReflectionToStringBuilderConcurrencyTest.java
C:\playground\commons-lang-trunk\commons-lang-trunk\src\test\java\org\apache\commons\lang3\tuple\TripleTest.java
C:\playground\commons-lang-trunk\commons-lang-trunk\src\test\java\org\apache\commons\lang3\builder\NoFieldNamesToStringStyleTest.java
C:\playground\commons-lang-trunk\commons-lang-trunk\src\test\java\org\apache\commons\lang3\mutable\MutableIntTest.java
C:\playground\commons-lang-trunk\commons-lang-trunk\src\test\java\org\apache\commons\lang3\math\IEEE754rUtilsTest.java
C:\playground\commons-lang-trunk\commons-lang-trunk\src\test\java\org\apache\commons\lang3\StringUtilsSubstringTest.java
C:\playground\commons-lang-trunk\commons-lang-trunk\src\test\java\org\apache\commons\lang3\reflect\testbed\StaticContainer.java
C:\playground\commons-lang-trunk\commons-lang-trunk\src\test\java\org\apache\commons\lang3\reflect\testbed\Parent.java
C:\playground\commons-lang-trunk\commons-lang-trunk\src\test\java\org\apache\commons\lang3\builder\EqualsBuilderTest.java
C:\playground\commons-lang-trunk\commons-lang-trunk\src\test\java\org\apache\commons\lang3\time\FastDatePrinterTest.java
C:\playground\commons-lang-trunk\commons-lang-trunk\src\test\java\org\apache\commons\lang3\JavaVersionTest.java
C:\playground\commons-lang-trunk\commons-lang-trunk\src\test\java\org\apache\commons\lang3\tuple\MutablePairTest.java
C:\playground\commons-lang-trunk\commons-lang-trunk\src\test\java\org\apache\commons\lang3\time\DateFormatUtilsTest.java
C:\playground\commons-lang-trunk\commons-lang-trunk\src\test\java\org\apache\commons\lang3\tuple\PairTest.java
C:\playground\commons-lang-trunk\commons-lang-trunk\src\test\java\org\apache\commons\lang3\builder\ToStringStyleConcurrencyTest.java
C:\playground\commons-lang-trunk\commons-lang-trunk\src\test\java\org\apache\commons\lang3\text\translate\UnicodeEscaperTest.java
C:\playground\commons-lang-trunk\commons-lang-trunk\src\test\java\org\apache\commons\lang3\builder\ReflectionToStringBuilderExcludeTest.java
C:\playground\commons-lang-trunk\commons-lang-trunk\src\test\java\org\apache\commons\lang3\ObjectUtilsTest.java
C:\playground\commons-lang-trunk\commons-lang-trunk\src\test\java\org\apache\commons\lang3\ArrayUtilsTest.java
C:\playground\commons-lang-trunk\commons-lang-trunk\src\test\java\org\apache\commons\lang3\text\translate\EntityArraysTest.java
C:\playground\commons-lang-trunk\commons-lang-trunk\src\test\java\org\apache\commons\lang3\mutable\MutableFloatTest.java
C:\playground\commons-lang-trunk\commons-lang-trunk\src\test\java\org\apache\commons\lang3\ArrayUtilsAddTest.java
C:\playground\commons-lang-trunk\commons-lang-trunk\src\test\java\org\apache\commons\lang3\concurrent\MultiBackgroundInitializerTest.java
C:\playground\commons-lang-trunk\commons-lang-trunk\src\test\java\org\apache\commons\lang3\StringUtilsTest.java
C:\playground\commons-lang-trunk\commons-lang-trunk\src\test\java\org\apache\commons\lang3\SerializationUtilsTest.java
C:\playground\commons-lang-trunk\commons-lang-trunk\src\test\java\org\apache\commons\lang3\CharSetTest.java
C:\playground\commons-lang-trunk\commons-lang-trunk\src\test\java\org\apache\commons\lang3\time\DateUtilsFragmentTest.java
C:\playground\commons-lang-trunk\commons-lang-trunk\src\test\java\org\apache\commons\lang3\builder\HashCodeBuilderAndEqualsBuilderTest.java
C:\playground\commons-lang-trunk\commons-lang-trunk\src\test\java\org\apache\commons\lang3\concurrent\BasicThreadFactoryTest.java
C:\playground\commons-lang-trunk\commons-lang-trunk\src\test\java\org\apache\commons\lang3\builder\StandardToStringStyleTest.java
C:\playground\commons-lang-trunk\commons-lang-trunk\src\test\java\org\apache\commons\lang3\ClassUtilsTest.java
C:\playground\commons-lang-trunk\commons-lang-trunk\src\test\java\org\apache\commons\lang3\exception\AbstractExceptionContextTest.java
C:\playground\commons-lang-trunk\commons-lang-trunk\src\test\java\org\apache\commons\lang3\builder\DefaultToStringStyleTest.java
C:\playground\commons-lang-trunk\commons-lang-trunk\src\test\java\org\apache\commons\lang3\time\FastDateFormat_PrinterTest.java
C:\playground\commons-lang-trunk\commons-lang-trunk\src\test\java\org\apache\commons\lang3\builder\HashCodeBuilderTest.java
C:\playground\commons-lang-trunk\commons-lang-trunk\src\test\java\org\apache\commons\lang3\text\StrTokenizerTest.java
C:\playground\commons-lang-trunk\commons-lang-trunk\src\test\java\org\apache\commons\lang3\BitFieldTest.java
C:\playground\commons-lang-trunk\commons-lang-trunk\src\test\java\org\apache\commons\lang3\text\StrBuilderTest.java
C:\playground\commons-lang-trunk\commons-lang-trunk\src\test\java\org\apache\commons\lang3\reflect\testbed\Foo.java
C:\playground\commons-lang-trunk\commons-lang-trunk\src\test\java\org\apache\commons\lang3\text\CompositeFormatTest.java
C:\playground\commons-lang-trunk\commons-lang-trunk\src\test\java\org\apache\commons\lang3\builder\SimpleToStringStyleTest.java
C:\playground\commons-lang-trunk\commons-lang-trunk\src\test\java\org\apache\commons\lang3\mutable\MutableDoubleTest.java
C:\playground\commons-lang-trunk\commons-lang-trunk\src\test\java\org\apache\commons\lang3\reflect\MethodUtilsTest.java
C:\playground\commons-lang-trunk\commons-lang-trunk\src\test\java\org\apache\commons\lang3\ArrayUtilsRemoveMultipleTest.java
C:\playground\commons-lang-trunk\commons-lang-trunk\src\test\java\org\apache\commons\lang3\exception\ContextedExceptionTest.java
C:\playground\commons-lang-trunk\commons-lang-trunk\src\test\java\org\apache\commons\lang3\time\StopWatchTest.java
C:\playground\commons-lang-trunk\commons-lang-trunk\src\test\java\org\apache\commons\lang3\BooleanUtilsTest.java
C:\playground\commons-lang-trunk\commons-lang-trunk\src\test\java\org\apache\commons\lang3\concurrent\AtomicInitializerTest.java
C:\playground\commons-lang-trunk\commons-lang-trunk\src\test\java\org\apache\commons\lang3\time\DurationFormatUtilsTest.java
C:\playground\commons-lang-trunk\commons-lang-trunk\src\test\java\org\apache\commons\lang3\math\FractionTest.java
C:\playground\commons-lang-trunk\commons-lang-trunk\src\test\java\org\apache\commons\lang3\CharSequenceUtilsTest.java
C:\playground\commons-lang-trunk\commons-lang-trunk\src\test\java\org\apache\commons\lang3\reflect\testbed\GenericTypeHolder.java
C:\playground\commons-lang-trunk\commons-lang-trunk\src\test\java\org\apache\commons\lang3\concurrent\ConcurrentUtilsTest.java
C:\playground\commons-lang-trunk\commons-lang-trunk\src\test\java\org\apache\commons\lang3\tuple\MutableTripleTest.java
C:\playground\commons-lang-trunk\commons-lang-trunk\src\test\java\org\apache\commons\lang3\reflect\testbed\Bar.java
C:\playground\commons-lang-trunk\commons-lang-trunk\src\test\java\org\apache\commons\lang3\CharEncodingTest.java
C:\playground\commons-lang-trunk\commons-lang-trunk\src\test\java\org\apache\commons\lang3\reflect\ConstructorUtilsTest.java
C:\playground\commons-lang-trunk\commons-lang-trunk\src\test\java\org\apache\commons\lang3\HashSetvBitSetTest.java
C:\playground\commons-lang-trunk\commons-lang-trunk\src\test\java\org\apache\commons\lang3\concurrent\TimedSemaphoreTest.java
C:\playground\commons-lang-trunk\commons-lang-trunk\src\test\java\org\apache\commons\lang3\reflect\testbed\PrivatelyShadowedChild.java
C:\playground\commons-lang-trunk\commons-lang-trunk\src\test\java\org\apache\commons\lang3\builder\ReflectionToStringBuilderMutateInspectConcurrencyTest.java
C:\playground\commons-lang-trunk\commons-lang-trunk\src\test\java\org\apache\commons\lang3\text\StrLookupTest.java
C:\playground\commons-lang-trunk\commons-lang-trunk\src\test\java\org\apache\commons\lang3\RandomStringUtilsTest.java
C:\playground\commons-lang-trunk\commons-lang-trunk\src\test\java\org\apache\commons\lang3\text\StrMatcherTest.java
C:\playground\commons-lang-trunk\commons-lang-trunk\src\test\java\org\apache\commons\lang3\text\ExtendedMessageFormatTest.java
C:\playground\commons-lang-trunk\commons-lang-trunk\src\test\java\org\apache\commons\lang3\event\EventListenerSupportTest.java
C:\playground\commons-lang-trunk\commons-lang-trunk\src\test\java\org\apache\commons\lang3\reflect\testbed\PublicChild.java
C:\playground\commons-lang-trunk\commons-lang-trunk\src\test\java\org\apache\commons\lang3\exception\ExceptionUtilsTest.java
C:\playground\commons-lang-trunk\commons-lang-trunk\src\test\java\org\apache\commons\lang3\text\translate\NumericEntityUnescaperTest.java
C:\playground\commons-lang-trunk\commons-lang-trunk\src\test\java\org\apache\commons\lang3\ConversionTest.java
C:\playground\commons-lang-trunk\commons-lang-trunk\src\test\java\org\apache\commons\lang3\time\FastDateParserTest.java
C:\playground\commons-lang-trunk\commons-lang-trunk\src\test\java\org\apache\commons\lang3\reflect\testbed\StaticContainerChild.java
C:\playground\commons-lang-trunk\commons-lang-trunk\src\test\java\org\apache\commons\lang3\ValidateTest.java
C:\playground\commons-lang-trunk\commons-lang-trunk\src\test\java\org\apache\commons\lang3\text\StrBuilderAppendInsertTest.java
C:\playground\commons-lang-trunk\commons-lang-trunk\src\test\java\org\apache\commons\lang3\event\EventUtilsTest.java
C:\playground\commons-lang-trunk\commons-lang-trunk\src\test\java\org\apache\commons\lang3\concurrent\ConstantInitializerTest.java
C:\playground\commons-lang-trunk\commons-lang-trunk\src\test\java\org\apache\commons\lang3\concurrent\AtomicSafeInitializerTest.java
C:\playground\commons-lang-trunk\commons-lang-trunk\src\test\java\org\apache\commons\lang3\RangeTest.java
C:\playground\commons-lang-trunk\commons-lang-trunk\src\test\java\org\apache\commons\lang3\CharRangeTest.java
C:\playground\commons-lang-trunk\commons-lang-trunk\src\test\java\org\apache\commons\lang3\time\FastDateFormat_ParserTest.java
C:\playground\commons-lang-trunk\commons-lang-trunk\src\test\java\org\apache\commons\lang3\ArrayUtilsRemoveTest.java
