-------------------------------------------------------------------------------
Test set: org.apache.commons.lang3.CharRangeTest
-------------------------------------------------------------------------------
Tests run: 16, Failures: 0, Errors: 0, Skipped: 0, Time elapsed: 0.021 sec
