-------------------------------------------------------------------------------
Test set: org.apache.commons.lang3.EnumUtilsTest
-------------------------------------------------------------------------------
Tests run: 34, Failures: 0, Errors: 0, Skipped: 0, Time elapsed: 0.021 sec
