-------------------------------------------------------------------------------
Test set: org.apache.commons.lang3.time.DateUtilsTest
-------------------------------------------------------------------------------
Tests run: 38, Failures: 0, Errors: 0, Skipped: 0, Time elapsed: 0.066 sec
