-------------------------------------------------------------------------------
Test set: org.apache.commons.lang3.BitFieldTest
-------------------------------------------------------------------------------
Tests run: 15, Failures: 0, Errors: 0, Skipped: 0, Time elapsed: 0 sec
