-------------------------------------------------------------------------------
Test set: org.apache.commons.lang3.StringUtilsTest
-------------------------------------------------------------------------------
Tests run: 99, Failures: 0, Errors: 0, Skipped: 0, Time elapsed: 0.084 sec
