-------------------------------------------------------------------------------
Test set: org.apache.commons.lang3.AnnotationUtilsTest
-------------------------------------------------------------------------------
Tests run: 10, Failures: 0, Errors: 0, Skipped: 0, Time elapsed: 0.121 sec
